AI_Accel/Mac/mac_mult.vcd
$date
	Thu Jun 11 09:32:55 2026
$end
$version
	Icarus Verilog
$end
$timescale
	1ps
$end
$scope module tb_Mac_mult $end
$var wire 16 ! OUT [15:0] $end
$var reg 4 " A [3:0] $end
$var reg 4 # B [3:0] $end
$var reg 1 $ clk $end
$var reg 1 % rst $end
$scope module uut $end
$var wire 4 & A [3:0] $end
$var wire 4 ' B [3:0] $end
$var wire 1 $ clk $end
$var wire 1 % rst $end
$var reg 16 ( OUT [15:0] $end
$upscope $end
$upscope $end
$enddefinitions $end
$comment Show the parameter values. $end
$dumpall
$end
#0
$dumpvars
b0 (
b0 '
b0 &
1%
0$
b0 #
b0 "
b0 !
$end
#5000
1$
#10000
0$
#12000
b11 #
b11 '
b10 "
b10 &
0%
#15000
b110 !
b110 (
1$
#20000
0$
#25000
b1100 !
b1100 (
1$
#30000
0$
#35000
b10010 !
b10010 (
1$
#40000
0$
#45000
b11000 !
b11000 (
1$
#50000
0$
#55000
b11110 !
b11110 (
1$
#60000
0$
#62000
b10 #
b10 '
b100 "
b100 &
#65000
b100110 !
b100110 (
1$
#70000
0$
#75000
b101110 !
b101110 (
1$
#80000
0$
#85000
b110110 !
b110110 (
1$
#90000
0$
#95000
b111110 !
b111110 (
1$
#100000
0$
#105000
b1000110 !
b1000110 (
1$
#110000
0$
#112000
b0 !
b0 (
1%
#115000
1$
#120000
0$
#122000
b101 #
b101 '
b101 "
b101 &
0%
#125000
b11001 !
b11001 (
1$
#130000
0$
#135000
b110010 !
b110010 (
1$
#140000
0$
#145000
b1001011 !
b1001011 (
1$
#150000
0$
#155000
b1100100 !
b1100100 (
1$
#160000
0$
#165000
b1111101 !
b1111101 (
1$
